Lab 9 Homework
…
colleges<-janitor::clean_names(colleges)
names(colleges)

##  [1] "instnm"        "city"          "stabbr"        "zip"          
##  [5] "adm_rate"      "sat_avg"       "pcip26"        "costt4_a"     
##  [9] "c150_4_pooled" "pftftug1_ef"

The data appears tidy as each observation has its own row, rach variable has its own column and each values has its own cell. 2. Which cities in California have the highest number of colleges?

colleges %>% 
  count(city,sort=T)

## # A tibble: 161 x 2
##    city              n
##    <chr>         <int>
##  1 Los Angeles      24
##  2 San Diego        18
##  3 San Francisco    15
##  4 Sacramento       10
##  5 Berkeley          9
##  6 Oakland           9
##  7 Claremont         7
##  8 Pasadena          6
##  9 Fresno            5
## 10 Irvine            5
## #  with 151 more rows
…
colleges %>% 
  group_by(city) %>% 
  summarize(avg_cost=mean(costt4_a,na.rm=T),.groups="keep") %>% 
  arrange(desc(avg_cost))

## # A tibble: 161 x 2
## # Groups:   city [161]
##    city                avg_cost
##    <chr>                  <dbl>
##  1 Claremont              66498
##  2 Malibu                 66152
##  3 Valencia               64686
##  4 Orange                 64501
##  5 Redlands               61542
##  6 Moraga                 61095
##  7 Atherton               56035
##  8 Thousand Oaks          54373
##  9 Rancho Palos Verdes    50758
## 10 La Verne               50603
## #  with 151 more rows
…
