…
2. Notice that we have some neutral superheros! Who are they?

```r
superhero_info %>% 
  select(name,alignment) %>% 
  filter(alignment=="neutral")
```

```
## # A tibble: 24 x 2
##    name         alignment
##    <chr>        <chr>    
##  1 Bizarro      neutral  
##  2 Black Flash  neutral  
##  3 Captain Cold neutral  
##  4 Copycat      neutral  
##  5 Deadpool     neutral  
##  6 Deathstroke  neutral  
##  7 Etrigan      neutral  
##  8 Galactus     neutral  
##  9 Gladiator    neutral  
## 10 Indigo       neutral  
## # … with 14 more rows
```

## `superhero_info`
3. Let's say we are only interested in the variables name, alignment, and "race". How would you isolate these variables from `superhero_info`?

```r
superhero_info %>% 
  select(name,alignment,race)
```

```
## # A tibble: 734 x 3
##    name          alignment race             
##    <chr>         <chr>     <chr>            
##  1 A-Bomb        good      Human            
##  2 Abe Sapien    good      Icthyo Sapien    
##  3 Abin Sur      good      Ungaran          
##  4 Abomination   bad       Human / Radiation
##  5 Abraxas       bad       Cosmic Entity    
##  6 Absorbing Man bad       Human            
##  7 Adam Monroe   good      <NA>             
##  8 Adam Strange  good      Human            
##  9 Agent 13      good      <NA>             
## 10 Agent Bob     good      Human            
## # … with 724 more rows
```

## Not Human
4. List all of the superheros that are not human.

```r
superhero_info %>% 
  select(name,race) %>% 
  filter(race!="Human")
```

```
## # A tibble: 222 x 2
##    name         race             
##    <chr>        <chr>            
##  1 Abe Sapien   Icthyo Sapien    
##  2 Abin Sur     Ungaran          
##  3 Abomination  Human / Radiation
##  4 Abraxas      Cosmic Entity    
##  5 Ajax         Cyborg           
##  6 Alien        Xenomorph XX121  
##  7 Amazo        Android          
##  8 Angel        Vampire          
##  9 Angel Dust   Mutant           
## 10 Anti-Monitor God / Eternal    
## # … with 212 more rows
```
…
9. OK, so are there more good guys or bad guys that are bald (personal interest)?

```r
good %>% 
  filter(hair.color=="No Hair") %>% 
  select(name,hair.color)
```

```
## # A tibble: 37 x 2
##    name            hair.color
##    <chr>           <chr>     
##  1 A-Bomb          No Hair   
##  2 Abe Sapien      No Hair   
##  3 Abin Sur        No Hair   
##  4 Beta Ray Bill   No Hair   
##  5 Bishop          No Hair   
##  6 Black Lightning No Hair   
##  7 Blaquesmith     No Hair   
##  8 Bloodhawk       No Hair   
##  9 Crimson Dynamo  No Hair   
## 10 Donatello       No Hair   
## # … with 27 more rows
```

```r
bad %>% 
  filter(hair.color=="No Hair") %>% 
  select(name,hair.color)
```

```
## # A tibble: 35 x 2
##    name          hair.color
##    <chr>         <chr>     
##  1 Abomination   No Hair   
##  2 Absorbing Man No Hair   
##  3 Alien         No Hair   
##  4 Annihilus     No Hair   
##  5 Anti-Monitor  No Hair   
##  6 Black Manta   No Hair   
##  7 Bloodwraith   No Hair   
##  8 Brainiac      No Hair   
##  9 Darkseid      No Hair   
## 10 Darth Vader   No Hair   
## # … with 25 more rows
```
…
## Height to Weight Ratio
13. It's easy to be strong when you are heavy and tall, but who is heavy and short? Which superheros have the highest height to weight ratio?

```r
superhero_info %>% 
  mutate(HWR=height/weight) %>% 
  select(name, height, weight, HWR) %>% 
  arrange(HWR)
```

```
## # A tibble: 734 x 4
##    name        height weight    HWR
##    <chr>        <dbl>  <dbl>  <dbl>
##  1 Giganta       62.5    630 0.0992
##  2 Utgard-Loki   15.2     58 0.262 
##  3 Darkseid     267      817 0.327 
##  4 Juggernaut   287      855 0.336 
##  5 Red Hulk     213      630 0.338 
##  6 Sasquatch    305      900 0.339 
##  7 Hulk         244      630 0.387 
##  8 Bloodaxe     218      495 0.440 
##  9 Thanos       201      443 0.454 
## 10 A-Bomb       203      441 0.460 
## # … with 724 more rows
```
…
14. How many superheros have a combination of accelerated healing, durability, and super strength?

```r
superhero_powers %>% 
  filter(accelerated_healing=="TRUE"&durability=="TRUE"&super_strength=="TRUE") %>% 
  select(hero_names,accelerated_healing,durability,super_strength)
```

```
## # A tibble: 97 x 4
##    hero_names   accelerated_healing durability super_strength
##    <chr>        <lgl>               <lgl>      <lgl>         
##  1 A-Bomb       TRUE                TRUE       TRUE          
##  2 Abe Sapien   TRUE                TRUE       TRUE          
##  3 Angel        TRUE                TRUE       TRUE          
##  4 Anti-Monitor TRUE                TRUE       TRUE          
##  5 Anti-Venom   TRUE                TRUE       TRUE          
##  6 Aquaman      TRUE                TRUE       TRUE          
##  7 Arachne      TRUE                TRUE       TRUE          
##  8 Archangel    TRUE                TRUE       TRUE          
##  9 Ardina       TRUE                TRUE       TRUE          
## 10 Ares         TRUE                TRUE       TRUE          
## # … with 87 more rows
```

## `kinesis`
15. We are only interested in the superheros that do some kind of "kinesis". How would we isolate them from the `superhero_powers` data?

```r
superhero_powers %>% 
  select(hero_names,contains("kinesis"))
```

```
## # A tibble: 667 x 10
##    hero_names cryokinesis electrokinesis telekinesis hyperkinesis hypnokinesis
##    <chr>      <lgl>       <lgl>          <lgl>       <lgl>        <lgl>       
##  1 3-D Man    FALSE       FALSE          FALSE       FALSE        FALSE       
##  2 A-Bomb     FALSE       FALSE          FALSE       FALSE        FALSE       
##  3 Abe Sapien FALSE       FALSE          FALSE       FALSE        FALSE       
##  4 Abin Sur   FALSE       FALSE          FALSE       FALSE        FALSE       
##  5 Abominati… FALSE       FALSE          FALSE       FALSE        FALSE       
##  6 Abraxas    FALSE       FALSE          FALSE       FALSE        FALSE       
##  7 Absorbing… FALSE       FALSE          FALSE       FALSE        FALSE       
##  8 Adam Monr… FALSE       FALSE          FALSE       FALSE        FALSE       
##  9 Adam Stra… FALSE       FALSE          FALSE       FALSE        FALSE       
## 10 Agent Bob  FALSE       FALSE          FALSE       FALSE        FALSE       
## # … with 657 more rows, and 4 more variables: thirstokinesis <lgl>,
## #   biokinesis <lgl>, terrakinesis <lgl>, vitakinesis <lgl>
```
…
